Id,Designator,Package,Quantity,Designation,Supplier and ref
1,G***,cure_logo,1,LOGO,
2,"MH4,MH3,MH2,MH1",MountingHole_3.2mm_M3_Pad,4,MountingHole,
3,"LED4,LED3,LED2,LED1",SMLD15YWT86,4,SML-D13FWT86,x
4,"R11,R8,R2,R6",R_1206,4,4.7k,x
5,"R9,R12,R4,R7",R_1206,4,1k,x
6,"R10,R5,R3,R1",R_1206,4,1200R,x
7,"F4,F1,F3,F2",03540101ZXGY,4,Fuse_Small,x
8,J2,XT60PW,1,XT60PW-M,
9,J1,11065062,1,DB15_Male,
10,"U4,U3,U2,U1",TO-252-4_Fat_Pads,4,BTS443P,x
