EESchema Schematic File Version 4
LIBS:SupplPCB1-cache
EELAYER 26 0
EELAYER END
$Descr A4 11693 8268
encoding utf-8
Sheet 1 1
Title ""
Date ""
Rev ""
Comp ""
Comment1 ""
Comment2 ""
Comment3 ""
Comment4 ""
$EndDescr
$Comp
L power:+24V #PWR02
U 1 1 5C0670EF
P 4850 900
F 0 "#PWR02" H 4850 750 50  0001 C CNN
F 1 "+24V" H 4865 1073 50  0000 C CNN
F 2 "" H 4850 900 50  0001 C CNN
F 3 "" H 4850 900 50  0001 C CNN
	1    4850 900 
	1    0    0    -1  
$EndComp
$Comp
L Device:Fuse_Small F1
U 1 1 5C070AA2
P 5100 1000
F 0 "F1" H 5100 1185 50  0000 C CNN
F 1 "Fuse_Small" H 5100 1094 50  0000 C CNN
F 2 "03540101ZXGY:03540101ZXGY" H 5100 1000 50  0001 C CNN
F 3 "~" H 5100 1000 50  0001 C CNN
	1    5100 1000
	1    0    0    -1  
$EndComp
Wire Wire Line
	4850 900  4850 1000
Wire Wire Line
	4850 1000 5000 1000
$Comp
L Device:R_Small R1
U 1 1 5C070BFF
P 5300 1200
F 0 "R1" H 5359 1246 50  0000 L CNN
F 1 "1200R" H 5359 1155 50  0000 L CNN
F 2 "Resistors_SMD:R_1206" H 5300 1200 50  0001 C CNN
F 3 "~" H 5300 1200 50  0001 C CNN
	1    5300 1200
	1    0    0    -1  
$EndComp
Wire Wire Line
	5200 1000 5300 1000
Wire Wire Line
	5300 1000 5300 1100
$Comp
L Cure_Symbol:SML-D13FWT86 LED1
U 1 1 5C070CE7
P 5300 1750
F 0 "LED1" V 5596 1582 50  0000 R CNN
F 1 "SML-D13FWT86" V 5505 1582 50  0000 R CNN
F 2 "SML-D13FWT86:SMLD15YWT86" H 5800 1900 50  0001 L BNN
F 3 "http://www.rohm.com/web/global/datasheet/SML-D13FW/sml-d13x-e" H 5800 1800 50  0001 L BNN
F 4 "ROHM SML-D13FWT86, SML 566 nm Green LED, 1608 (0603) Milky White SMD package" H 5800 1700 50  0001 L BNN "Description"
F 5 "ROHM Semiconductor" H 5800 1500 50  0001 L BNN "Manufacturer_Name"
F 6 "SML-D13FWT86" H 5800 1400 50  0001 L BNN "Manufacturer_Part_Number"
F 7 "1332874P" H 5800 1300 50  0001 L BNN "RS Part Number"
F 8 "http://uk.rs-online.com/web/p/products/1332874P" H 5800 1200 50  0001 L BNN "RS Price/Stock"
F 9 "SML-D13FWT86" H 5800 1100 50  0001 L BNN "Arrow Part Number"
F 10 "http://uk.rs-online.com/web/p/products/1332874P" H 5800 1000 50  0001 L BNN "Arrow Price/Stock"
	1    5300 1750
	0    -1   -1   0   
$EndComp
Wire Wire Line
	5300 1300 5300 1350
$Comp
L power:GND #PWR03
U 1 1 5C070DC3
P 5300 1750
F 0 "#PWR03" H 5300 1500 50  0001 C CNN
F 1 "GND" H 5305 1577 50  0000 C CNN
F 2 "" H 5300 1750 50  0001 C CNN
F 3 "" H 5300 1750 50  0001 C CNN
	1    5300 1750
	1    0    0    -1  
$EndComp
Wire Wire Line
	5300 1650 5300 1750
Text GLabel 5350 550  2    50   Input ~ 0
Fan_Accu_Fused
Connection ~ 5300 1000
Text GLabel 6050 1450 0    50   Input ~ 0
µC_Fan_Accu
Text GLabel 7250 1350 2    50   Input ~ 0
Fan_Accu_Switched
$Comp
L power:+24V #PWR06
U 1 1 5C074B44
P 4850 2450
F 0 "#PWR06" H 4850 2300 50  0001 C CNN
F 1 "+24V" H 4865 2623 50  0000 C CNN
F 2 "" H 4850 2450 50  0001 C CNN
F 3 "" H 4850 2450 50  0001 C CNN
	1    4850 2450
	1    0    0    -1  
$EndComp
$Comp
L Device:Fuse_Small F2
U 1 1 5C074B4A
P 5100 2550
F 0 "F2" H 5100 2735 50  0000 C CNN
F 1 "Fuse_Small" H 5100 2644 50  0000 C CNN
F 2 "03540101ZXGY:03540101ZXGY" H 5100 2550 50  0001 C CNN
F 3 "~" H 5100 2550 50  0001 C CNN
	1    5100 2550
	1    0    0    -1  
$EndComp
Wire Wire Line
	4850 2450 4850 2550
Wire Wire Line
	4850 2550 5000 2550
$Comp
L Device:R_Small R3
U 1 1 5C074B53
P 5300 2750
F 0 "R3" H 5359 2796 50  0000 L CNN
F 1 "1200R" H 5359 2705 50  0000 L CNN
F 2 "Resistors_SMD:R_1206" H 5300 2750 50  0001 C CNN
F 3 "~" H 5300 2750 50  0001 C CNN
	1    5300 2750
	1    0    0    -1  
$EndComp
Wire Wire Line
	5200 2550 5300 2550
Wire Wire Line
	5300 2550 5300 2650
$Comp
L Cure_Symbol:SML-D13FWT86 LED2
U 1 1 5C074B63
P 5300 3300
F 0 "LED2" V 5596 3132 50  0000 R CNN
F 1 "SML-D13FWT86" V 5505 3132 50  0000 R CNN
F 2 "SML-D13FWT86:SMLD15YWT86" H 5800 3450 50  0001 L BNN
F 3 "http://www.rohm.com/web/global/datasheet/SML-D13FW/sml-d13x-e" H 5800 3350 50  0001 L BNN
F 4 "ROHM SML-D13FWT86, SML 566 nm Green LED, 1608 (0603) Milky White SMD package" H 5800 3250 50  0001 L BNN "Description"
F 5 "ROHM Semiconductor" H 5800 3050 50  0001 L BNN "Manufacturer_Name"
F 6 "SML-D13FWT86" H 5800 2950 50  0001 L BNN "Manufacturer_Part_Number"
F 7 "1332874P" H 5800 2850 50  0001 L BNN "RS Part Number"
F 8 "http://uk.rs-online.com/web/p/products/1332874P" H 5800 2750 50  0001 L BNN "RS Price/Stock"
F 9 "SML-D13FWT86" H 5800 2650 50  0001 L BNN "Arrow Part Number"
F 10 "http://uk.rs-online.com/web/p/products/1332874P" H 5800 2550 50  0001 L BNN "Arrow Price/Stock"
	1    5300 3300
	0    -1   -1   0   
$EndComp
Wire Wire Line
	5300 2850 5300 2900
$Comp
L power:GND #PWR07
U 1 1 5C074B6B
P 5300 3300
F 0 "#PWR07" H 5300 3050 50  0001 C CNN
F 1 "GND" H 5305 3127 50  0000 C CNN
F 2 "" H 5300 3300 50  0001 C CNN
F 3 "" H 5300 3300 50  0001 C CNN
	1    5300 3300
	1    0    0    -1  
$EndComp
Wire Wire Line
	5300 3200 5300 3300
Text GLabel 5350 2100 2    50   Input ~ 0
Fan_Radiator_Fused
Connection ~ 5300 2550
$Comp
L power:GND #PWR08
U 1 1 5C074B9D
P 7450 3200
F 0 "#PWR08" H 7450 2950 50  0001 C CNN
F 1 "GND" H 7455 3027 50  0000 C CNN
F 2 "" H 7450 3200 50  0001 C CNN
F 3 "" H 7450 3200 50  0001 C CNN
	1    7450 3200
	0    -1   -1   0   
$EndComp
Wire Wire Line
	7450 3200 7400 3200
Text GLabel 7250 2900 2    50   Input ~ 0
Fan_Radiator_Switched
Wire Wire Line
	5300 550  5350 550 
Wire Wire Line
	5300 550  5300 1000
Wire Wire Line
	5300 2100 5350 2100
Wire Wire Line
	5300 2100 5300 2550
$Comp
L power:+24V #PWR010
U 1 1 5C07A1B8
P 4850 4000
F 0 "#PWR010" H 4850 3850 50  0001 C CNN
F 1 "+24V" H 4865 4173 50  0000 C CNN
F 2 "" H 4850 4000 50  0001 C CNN
F 3 "" H 4850 4000 50  0001 C CNN
	1    4850 4000
	1    0    0    -1  
$EndComp
$Comp
L Device:Fuse_Small F3
U 1 1 5C07A1BE
P 5100 4100
F 0 "F3" H 5100 4285 50  0000 C CNN
F 1 "Fuse_Small" H 5100 4194 50  0000 C CNN
F 2 "03540101ZXGY:03540101ZXGY" H 5100 4100 50  0001 C CNN
F 3 "~" H 5100 4100 50  0001 C CNN
	1    5100 4100
	1    0    0    -1  
$EndComp
Wire Wire Line
	4850 4000 4850 4100
Wire Wire Line
	4850 4100 5000 4100
$Comp
L Device:R_Small R5
U 1 1 5C07A1C7
P 5300 4300
F 0 "R5" H 5359 4346 50  0000 L CNN
F 1 "1200R" H 5359 4255 50  0000 L CNN
F 2 "Resistors_SMD:R_1206" H 5300 4300 50  0001 C CNN
F 3 "~" H 5300 4300 50  0001 C CNN
	1    5300 4300
	1    0    0    -1  
$EndComp
Wire Wire Line
	5300 4100 5300 4200
$Comp
L Cure_Symbol:SML-D13FWT86 LED3
U 1 1 5C07A1D7
P 5300 4850
F 0 "LED3" V 5596 4682 50  0000 R CNN
F 1 "SML-D13FWT86" V 5505 4682 50  0000 R CNN
F 2 "SML-D13FWT86:SMLD15YWT86" H 5800 5000 50  0001 L BNN
F 3 "http://www.rohm.com/web/global/datasheet/SML-D13FW/sml-d13x-e" H 5800 4900 50  0001 L BNN
F 4 "ROHM SML-D13FWT86, SML 566 nm Green LED, 1608 (0603) Milky White SMD package" H 5800 4800 50  0001 L BNN "Description"
F 5 "ROHM Semiconductor" H 5800 4600 50  0001 L BNN "Manufacturer_Name"
F 6 "SML-D13FWT86" H 5800 4500 50  0001 L BNN "Manufacturer_Part_Number"
F 7 "1332874P" H 5800 4400 50  0001 L BNN "RS Part Number"
F 8 "http://uk.rs-online.com/web/p/products/1332874P" H 5800 4300 50  0001 L BNN "RS Price/Stock"
F 9 "SML-D13FWT86" H 5800 4200 50  0001 L BNN "Arrow Part Number"
F 10 "http://uk.rs-online.com/web/p/products/1332874P" H 5800 4100 50  0001 L BNN "Arrow Price/Stock"
	1    5300 4850
	0    -1   -1   0   
$EndComp
Wire Wire Line
	5300 4400 5300 4450
$Comp
L power:GND #PWR011
U 1 1 5C07A1DF
P 5300 4850
F 0 "#PWR011" H 5300 4600 50  0001 C CNN
F 1 "GND" H 5305 4677 50  0000 C CNN
F 2 "" H 5300 4850 50  0001 C CNN
F 3 "" H 5300 4850 50  0001 C CNN
	1    5300 4850
	1    0    0    -1  
$EndComp
Wire Wire Line
	5300 4750 5300 4850
Text GLabel 5350 3650 2    50   Input ~ 0
Pump_Fused
Connection ~ 5300 4100
$Comp
L power:GND #PWR012
U 1 1 5C07A20F
P 7400 4750
F 0 "#PWR012" H 7400 4500 50  0001 C CNN
F 1 "GND" H 7405 4577 50  0000 C CNN
F 2 "" H 7400 4750 50  0001 C CNN
F 3 "" H 7400 4750 50  0001 C CNN
	1    7400 4750
	0    -1   -1   0   
$EndComp
Wire Wire Line
	7400 4750 7350 4750
Text GLabel 6000 4550 0    50   Input ~ 0
µC_Pump
Text GLabel 7200 4450 2    50   Input ~ 0
Pump_Switched
Wire Wire Line
	5300 3650 5350 3650
$Comp
L Connector:DB15_Male J1
U 1 1 5C07F0B1
P 10650 1350
F 0 "J1" H 10805 1396 50  0000 L CNN
F 1 "DB15_Male" H 10805 1305 50  0000 L CNN
F 2 "1-106506-2:11065062" H 10650 1350 50  0001 C CNN
F 3 " ~" H 10650 1350 50  0001 C CNN
	1    10650 1350
	1    0    0    -1  
$EndComp
Text GLabel 10150 650  0    50   Input ~ 0
Fan_Accu_Switched
Wire Wire Line
	10350 650  10250 650 
Wire Wire Line
	10350 750  10250 750 
Wire Wire Line
	10250 750  10250 650 
Connection ~ 10250 650 
Wire Wire Line
	10250 650  10150 650 
Text GLabel 10150 1050 0    50   Input ~ 0
Fan_Radiator_Switched
Wire Wire Line
	10150 1050 10250 1050
Wire Wire Line
	10350 1150 10250 1150
Wire Wire Line
	10250 1150 10250 1050
Connection ~ 10250 1050
Wire Wire Line
	10250 1050 10350 1050
Text GLabel 10150 1450 0    50   Input ~ 0
Pump_Switched
Wire Wire Line
	10150 1450 10250 1450
Wire Wire Line
	10350 1550 10250 1550
Wire Wire Line
	10250 1550 10250 1450
Connection ~ 10250 1450
Wire Wire Line
	10250 1450 10350 1450
Wire Wire Line
	10350 1650 10250 1650
Wire Wire Line
	10250 1650 10250 1550
Connection ~ 10250 1550
Wire Wire Line
	10350 1750 10250 1750
Wire Wire Line
	10250 1750 10250 1650
Connection ~ 10250 1650
Text GLabel 10150 2050 0    50   Input ~ 0
RTDS
Wire Wire Line
	10350 2050 10150 2050
$Comp
L Cure_Symbol:XT60PW-M J2
U 1 1 5C09070A
P 1050 950
F 0 "J2" H 944 613 60  0000 C CNN
F 1 "XT60PW-M" H 944 719 60  0000 C CNN
F 2 "xt60pw:XT60PW" H 1050 950 60  0001 C CNN
F 3 "" H 1050 950 60  0001 C CNN
	1    1050 950 
	-1   0    0    1   
$EndComp
$Comp
L power:+24V #PWR0101
U 1 1 5C090AA8
P 1400 900
F 0 "#PWR0101" H 1400 750 50  0001 C CNN
F 1 "+24V" H 1415 1073 50  0000 C CNN
F 2 "" H 1400 900 50  0001 C CNN
F 3 "" H 1400 900 50  0001 C CNN
	1    1400 900 
	1    0    0    -1  
$EndComp
$Comp
L power:GND #PWR0102
U 1 1 5C090ADF
P 1400 1000
F 0 "#PWR0102" H 1400 750 50  0001 C CNN
F 1 "GND" H 1405 827 50  0000 C CNN
F 2 "" H 1400 1000 50  0001 C CNN
F 3 "" H 1400 1000 50  0001 C CNN
	1    1400 1000
	1    0    0    -1  
$EndComp
Wire Wire Line
	1300 900  1400 900 
Wire Wire Line
	1300 1000 1400 1000
$Comp
L Mechanical:MountingHole MH1
U 1 1 5C09A4A0
P 2650 1250
F 0 "MH1" H 2750 1296 50  0000 L CNN
F 1 "MountingHole" H 2750 1205 50  0000 L CNN
F 2 "Mounting_Holes:MountingHole_3.2mm_M3_Pad" H 2650 1250 50  0001 C CNN
F 3 "~" H 2650 1250 50  0001 C CNN
	1    2650 1250
	1    0    0    -1  
$EndComp
$Comp
L Mechanical:MountingHole MH2
U 1 1 5C09A500
P 2850 1250
F 0 "MH2" H 2950 1296 50  0000 L CNN
F 1 "MountingHole" H 2950 1205 50  0000 L CNN
F 2 "Mounting_Holes:MountingHole_3.2mm_M3_Pad" H 2850 1250 50  0001 C CNN
F 3 "~" H 2850 1250 50  0001 C CNN
	1    2850 1250
	1    0    0    -1  
$EndComp
$Comp
L Mechanical:MountingHole MH3
U 1 1 5C09A544
P 2650 1450
F 0 "MH3" H 2750 1496 50  0000 L CNN
F 1 "MountingHole" H 2750 1405 50  0000 L CNN
F 2 "Mounting_Holes:MountingHole_3.2mm_M3_Pad" H 2650 1450 50  0001 C CNN
F 3 "~" H 2650 1450 50  0001 C CNN
	1    2650 1450
	1    0    0    -1  
$EndComp
$Comp
L Mechanical:MountingHole MH4
U 1 1 5C09A592
P 2850 1450
F 0 "MH4" H 2950 1496 50  0000 L CNN
F 1 "MountingHole" H 2950 1405 50  0000 L CNN
F 2 "Mounting_Holes:MountingHole_3.2mm_M3_Pad" H 2850 1450 50  0001 C CNN
F 3 "~" H 2850 1450 50  0001 C CNN
	1    2850 1450
	1    0    0    -1  
$EndComp
Text GLabel 10250 950  0    50   Input ~ 0
µC_Fan_Accu
Text GLabel 10250 1350 0    50   Input ~ 0
µC_Fan_Radiator
Text GLabel 10250 1950 0    50   Input ~ 0
µC_Pump
Wire Wire Line
	10250 950  10350 950 
Wire Wire Line
	10250 1950 10350 1950
Wire Wire Line
	10250 1350 10350 1350
Text GLabel 10250 1850 0    50   Input ~ 0
µC_RTDS
Wire Wire Line
	10250 1850 10350 1850
Text GLabel 6050 3000 0    50   Input ~ 0
µC_Fan_Radiator
$Comp
L Power_Management:BTS443P U1
U 1 1 5C0FA14F
P 6750 1450
F 0 "U1" H 6750 1076 50  0000 C CNN
F 1 "BTS443P" H 6750 985 50  0000 C CNN
F 2 "TO-252-4_Fat_Pads:TO-252-4_Fat_Pads" H 6750 1050 50  0001 C CNN
F 3 "http://www.infineon.com/dgdl/Infineon-BTS443P-DS-v01_00-EN.pdf?fileId=5546d4625a888733015aa9afbc5035d5" H 6750 1050 50  0001 C CNN
	1    6750 1450
	1    0    0    -1  
$EndComp
Wire Wire Line
	7150 1350 7200 1350
Wire Wire Line
	7150 1450 7200 1450
Wire Wire Line
	7200 1450 7200 1350
Connection ~ 7200 1350
Wire Wire Line
	7200 1350 7250 1350
$Comp
L Device:R_Small R4
U 1 1 5C0FBE4B
P 7300 1650
F 0 "R4" V 7104 1650 50  0000 C CNN
F 1 "1k" V 7195 1650 50  0000 C CNN
F 2 "Resistors_SMD:R_1206" H 7300 1650 50  0001 C CNN
F 3 "~" H 7300 1650 50  0001 C CNN
	1    7300 1650
	0    1    1    0   
$EndComp
$Comp
L power:GND #PWR0103
U 1 1 5C0FBEC3
P 7450 1650
F 0 "#PWR0103" H 7450 1400 50  0001 C CNN
F 1 "GND" H 7455 1477 50  0000 C CNN
F 2 "" H 7450 1650 50  0001 C CNN
F 3 "" H 7450 1650 50  0001 C CNN
	1    7450 1650
	0    -1   -1   0   
$EndComp
Wire Wire Line
	7150 1650 7200 1650
Wire Wire Line
	7400 1650 7450 1650
Wire Wire Line
	6750 1050 6750 1000
$Comp
L Power_Management:BTS443P U2
U 1 1 5C103A4B
P 6750 3000
F 0 "U2" H 6750 2626 50  0000 C CNN
F 1 "BTS443P" H 6750 2535 50  0000 C CNN
F 2 "TO-252-4_Fat_Pads:TO-252-4_Fat_Pads" H 6750 2600 50  0001 C CNN
F 3 "http://www.infineon.com/dgdl/Infineon-BTS443P-DS-v01_00-EN.pdf?fileId=5546d4625a888733015aa9afbc5035d5" H 6750 2600 50  0001 C CNN
	1    6750 3000
	1    0    0    -1  
$EndComp
Wire Wire Line
	7150 2900 7200 2900
Wire Wire Line
	7150 3000 7200 3000
Wire Wire Line
	7200 3000 7200 2900
Connection ~ 7200 2900
Wire Wire Line
	7200 2900 7250 2900
$Comp
L Device:R_Small R7
U 1 1 5C103A57
P 7300 3200
F 0 "R7" V 7104 3200 50  0000 C CNN
F 1 "1k" V 7195 3200 50  0000 C CNN
F 2 "Resistors_SMD:R_1206" H 7300 3200 50  0001 C CNN
F 3 "~" H 7300 3200 50  0001 C CNN
	1    7300 3200
	0    1    1    0   
$EndComp
Wire Wire Line
	7150 3200 7200 3200
Wire Wire Line
	6750 2600 6750 2550
Wire Wire Line
	6300 3000 6350 3000
$Comp
L Power_Management:BTS443P U3
U 1 1 5C10A7F0
P 6700 4550
F 0 "U3" H 6700 4176 50  0000 C CNN
F 1 "BTS443P" H 6700 4085 50  0000 C CNN
F 2 "TO-252-4_Fat_Pads:TO-252-4_Fat_Pads" H 6700 4150 50  0001 C CNN
F 3 "http://www.infineon.com/dgdl/Infineon-BTS443P-DS-v01_00-EN.pdf?fileId=5546d4625a888733015aa9afbc5035d5" H 6700 4150 50  0001 C CNN
	1    6700 4550
	1    0    0    -1  
$EndComp
Wire Wire Line
	7100 4450 7150 4450
Wire Wire Line
	7100 4550 7150 4550
Wire Wire Line
	7150 4550 7150 4450
Connection ~ 7150 4450
Wire Wire Line
	7150 4450 7200 4450
$Comp
L Device:R_Small R9
U 1 1 5C10A7FC
P 7250 4750
F 0 "R9" V 7054 4750 50  0000 C CNN
F 1 "1k" V 7145 4750 50  0000 C CNN
F 2 "Resistors_SMD:R_1206" H 7250 4750 50  0001 C CNN
F 3 "~" H 7250 4750 50  0001 C CNN
	1    7250 4750
	0    1    1    0   
$EndComp
Wire Wire Line
	7100 4750 7150 4750
Wire Wire Line
	6700 4150 6700 4100
Wire Wire Line
	6250 4550 6300 4550
Wire Wire Line
	5200 4100 5300 4100
Wire Wire Line
	5300 4100 6700 4100
Wire Wire Line
	5300 2550 6750 2550
Wire Wire Line
	5300 1000 6750 1000
Wire Wire Line
	6300 1450 6350 1450
$Comp
L Device:R_Small R2
U 1 1 5C122ACC
P 6200 1450
F 0 "R2" V 6004 1450 50  0000 C CNN
F 1 "4.7k" V 6095 1450 50  0000 C CNN
F 2 "Resistors_SMD:R_1206" H 6200 1450 50  0001 C CNN
F 3 "~" H 6200 1450 50  0001 C CNN
	1    6200 1450
	0    1    1    0   
$EndComp
$Comp
L Device:R_Small R6
U 1 1 5C122C3C
P 6200 3000
F 0 "R6" V 6004 3000 50  0000 C CNN
F 1 "4.7k" V 6095 3000 50  0000 C CNN
F 2 "Resistors_SMD:R_1206" H 6200 3000 50  0001 C CNN
F 3 "~" H 6200 3000 50  0001 C CNN
	1    6200 3000
	0    1    1    0   
$EndComp
Wire Wire Line
	6050 3000 6100 3000
$Comp
L Device:R_Small R8
U 1 1 5C124A39
P 6150 4550
F 0 "R8" V 5954 4550 50  0000 C CNN
F 1 "4.7k" V 6045 4550 50  0000 C CNN
F 2 "Resistors_SMD:R_1206" H 6150 4550 50  0001 C CNN
F 3 "~" H 6150 4550 50  0001 C CNN
	1    6150 4550
	0    1    1    0   
$EndComp
Wire Wire Line
	6050 4550 6000 4550
Wire Wire Line
	6050 1450 6100 1450
$Comp
L power:+24V #PWR0104
U 1 1 5C12CC46
P 4850 5600
F 0 "#PWR0104" H 4850 5450 50  0001 C CNN
F 1 "+24V" H 4865 5773 50  0000 C CNN
F 2 "" H 4850 5600 50  0001 C CNN
F 3 "" H 4850 5600 50  0001 C CNN
	1    4850 5600
	1    0    0    -1  
$EndComp
$Comp
L Device:Fuse_Small F4
U 1 1 5C12CC4C
P 5100 5700
F 0 "F4" H 5100 5885 50  0000 C CNN
F 1 "Fuse_Small" H 5100 5794 50  0000 C CNN
F 2 "03540101ZXGY:03540101ZXGY" H 5100 5700 50  0001 C CNN
F 3 "~" H 5100 5700 50  0001 C CNN
	1    5100 5700
	1    0    0    -1  
$EndComp
Wire Wire Line
	4850 5600 4850 5700
Wire Wire Line
	4850 5700 5000 5700
$Comp
L Device:R_Small R10
U 1 1 5C12CC55
P 5300 5900
F 0 "R10" H 5359 5946 50  0000 L CNN
F 1 "1200R" H 5359 5855 50  0000 L CNN
F 2 "Resistors_SMD:R_1206" H 5300 5900 50  0001 C CNN
F 3 "~" H 5300 5900 50  0001 C CNN
	1    5300 5900
	1    0    0    -1  
$EndComp
Wire Wire Line
	5300 5700 5300 5800
$Comp
L Cure_Symbol:SML-D13FWT86 LED4
U 1 1 5C12CC64
P 5300 6450
F 0 "LED4" V 5596 6282 50  0000 R CNN
F 1 "SML-D13FWT86" V 5505 6282 50  0000 R CNN
F 2 "SML-D13FWT86:SMLD15YWT86" H 5800 6600 50  0001 L BNN
F 3 "http://www.rohm.com/web/global/datasheet/SML-D13FW/sml-d13x-e" H 5800 6500 50  0001 L BNN
F 4 "ROHM SML-D13FWT86, SML 566 nm Green LED, 1608 (0603) Milky White SMD package" H 5800 6400 50  0001 L BNN "Description"
F 5 "ROHM Semiconductor" H 5800 6200 50  0001 L BNN "Manufacturer_Name"
F 6 "SML-D13FWT86" H 5800 6100 50  0001 L BNN "Manufacturer_Part_Number"
F 7 "1332874P" H 5800 6000 50  0001 L BNN "RS Part Number"
F 8 "http://uk.rs-online.com/web/p/products/1332874P" H 5800 5900 50  0001 L BNN "RS Price/Stock"
F 9 "SML-D13FWT86" H 5800 5800 50  0001 L BNN "Arrow Part Number"
F 10 "http://uk.rs-online.com/web/p/products/1332874P" H 5800 5700 50  0001 L BNN "Arrow Price/Stock"
	1    5300 6450
	0    -1   -1   0   
$EndComp
Wire Wire Line
	5300 6000 5300 6050
$Comp
L power:GND #PWR0105
U 1 1 5C12CC6C
P 5300 6450
F 0 "#PWR0105" H 5300 6200 50  0001 C CNN
F 1 "GND" H 5305 6277 50  0000 C CNN
F 2 "" H 5300 6450 50  0001 C CNN
F 3 "" H 5300 6450 50  0001 C CNN
	1    5300 6450
	1    0    0    -1  
$EndComp
Wire Wire Line
	5300 6350 5300 6450
Text GLabel 5350 5250 2    50   Input ~ 0
RTDS_Fused
Connection ~ 5300 5700
$Comp
L power:GND #PWR0106
U 1 1 5C12CC75
P 7400 6350
F 0 "#PWR0106" H 7400 6100 50  0001 C CNN
F 1 "GND" H 7405 6177 50  0000 C CNN
F 2 "" H 7400 6350 50  0001 C CNN
F 3 "" H 7400 6350 50  0001 C CNN
	1    7400 6350
	0    -1   -1   0   
$EndComp
Wire Wire Line
	7400 6350 7350 6350
Wire Wire Line
	5300 5250 5350 5250
Wire Wire Line
	5300 5250 5300 5700
$Comp
L Power_Management:BTS443P U4
U 1 1 5C12CC80
P 6700 6150
F 0 "U4" H 6700 5776 50  0000 C CNN
F 1 "BTS443P" H 6700 5685 50  0000 C CNN
F 2 "TO-252-4_Fat_Pads:TO-252-4_Fat_Pads" H 6700 5750 50  0001 C CNN
F 3 "http://www.infineon.com/dgdl/Infineon-BTS443P-DS-v01_00-EN.pdf?fileId=5546d4625a888733015aa9afbc5035d5" H 6700 5750 50  0001 C CNN
	1    6700 6150
	1    0    0    -1  
$EndComp
Wire Wire Line
	7100 6050 7150 6050
Wire Wire Line
	7100 6150 7150 6150
Wire Wire Line
	7150 6150 7150 6050
Connection ~ 7150 6050
Wire Wire Line
	7150 6050 7200 6050
$Comp
L Device:R_Small R12
U 1 1 5C12CC8C
P 7250 6350
F 0 "R12" V 7054 6350 50  0000 C CNN
F 1 "1k" V 7145 6350 50  0000 C CNN
F 2 "Resistors_SMD:R_1206" H 7250 6350 50  0001 C CNN
F 3 "~" H 7250 6350 50  0001 C CNN
	1    7250 6350
	0    1    1    0   
$EndComp
Wire Wire Line
	7100 6350 7150 6350
Wire Wire Line
	6700 5750 6700 5700
Wire Wire Line
	6250 6150 6300 6150
Wire Wire Line
	5200 5700 5300 5700
Wire Wire Line
	5300 5700 6700 5700
$Comp
L Device:R_Small R11
U 1 1 5C12CC98
P 6150 6150
F 0 "R11" V 5954 6150 50  0000 C CNN
F 1 "4.7k" V 6045 6150 50  0000 C CNN
F 2 "Resistors_SMD:R_1206" H 6150 6150 50  0001 C CNN
F 3 "~" H 6150 6150 50  0001 C CNN
	1    6150 6150
	0    1    1    0   
$EndComp
Wire Wire Line
	6050 6150 6000 6150
Text GLabel 6000 6150 0    50   Input ~ 0
µC_RTDS
Text GLabel 7200 6050 2    50   Input ~ 0
RTDS
Wire Wire Line
	5300 3650 5300 4100
$EndSCHEMATC
